<svg width="24" height="24" viewBox="0 0 24 24" fill="none" xmlns="http://www.w3.org/2000/svg">
<path fill-rule="evenodd" clip-rule="evenodd" d="M11 2L12 2L14 2L14 4L14 7L23 7L23 9L23 11L21 11L21 9L14 9L12 9L12 7L12 4L11 4L10 4L9 4L9 2L10 2L11 2ZM19 15L21 15L21 13L21 11L15 11L15 13L19 13L19 15ZM17 19L17 17L15 17L15 15L19 15L19 17L19 19L17 19ZM17 19L17 21L3 21L3 19L17 19ZM9 4L7 4L7 6L5 6L5 8L3 8L3 10L0.999999 10L0.999999 19L3 19L3 10L5 10L5 8L7 8L7 6L9 6L9 4Z" fill="black"/>
</svg>
